{"status_code": 200, "text": "{\"data\":[{\"id\":33695750,\"name\":\"Des Mosquito\",\"typeline\":[\"Insect\",\"Effect\"],\"type\":\"Effect Monster\",\"humanReadableCardType\":\"Effect Monster\",\"frameType\":\"effect\",\"desc\":\"When this card is Normal or Special Summoned: Place 2 counters on it. It gains 500 ATK for each of these counters. If this card would be destroyed by battle, remove 1 of these counters instead.\",\"race\":\"Insect\",\"atk\":500,\"def\":500,\"level\":3,\"attribute\":\"DARK\",\"ygoprodeck_url\":\"https://ygoprodeck.com/card/des-mosquito-2857\",\"card_sets\":[{\"set_name\":\"Battle Pack 2: War of the Giants\",\"set_code\":\"BP02-EN076\",\"set_rarity\":\"Common\",\"set_rarity_code\":\"(C)\",\"set_price\":\"0\"},{\"set_name\":\"Battle Pack 2: War of the Giants\",\"set_code\":\"BP02-EN076\",\"set_rarity\":\"Mosaic Rare\",\"set_rarity_code\":\"(MSR)\",\"set_price\":\"0\"},{\"set_name\":\"Battle Pack: Epic Dawn\",\"set_code\":\"BP01-EN194\",\"set_rarity\":\"Common\",\"set_rarity_code\":\"(C)\",\"set_price\":\"0\"},{\"set_name\":\"Battle Pack: Epic Dawn\",\"set_code\":\"BP01-EN194\",\"set_rarity\":\"Starfoil Rare\",\"set_rarity_code\":\"(SFR)\",\"set_price\":\"0\"},{\"set_name\":\"Dark Legends\",\"set_code\":\"DLG1-EN103\",\"set_rarity\":\"Rare\",\"set_rarity_code\":\"(R)\",\"set_price\":\"1.22\"},{\"set_name\":\"Starter Deck: Kaiba Reloaded\",\"set_code\":\"YSKR-EN023\",\"set_rarity\":\"Common\",\"set_rarity_code\":\"(C)\",\"set_price\":\"1.08\"},{\"set_name\":\"Yu-Gi-Oh! GX Card Almanac promotional cards\",\"set_code\":\"YDB1-EN003\",\"set_rarity\":\"Super Rare\",\"set_rarity_code\":\"(SR)\",\"set_price\":\"0.00\"}],\"card_images\":[{\"id\":33695750,\"image_url\":\"https://images.ygoprodeck.com/images/cards/33695750.jpg\",\"image_url_small\":\"https://images.ygoprodeck.com/images/cards_small/33695750.jpg\",\"image_url_cropped\":\"https://images.ygoprodeck.com/images/cards_cropped/33695750.jpg\"}],\"card_prices\":[{\"cardmarket_price\":\"0.07\",\"tcgplayer_price\":\"0.05\",\"ebay_price\":\"0.99\",\"amazon_price\":\"1.17\",\"coolstuffinc_price\":\"0.25\"}]}],\"meta\":{\"generated\":\"2025-05-18T03:22:44+00:00\",\"current_rows\":1,\"total_rows\":13717,\"rows_remaining\":13716,\"total_pages\":13717,\"pages_remaining\":13716,\"next_page\":\"https://db.ygoprodeck.com/api/v7/cardinfo.php?num=1&offset=1&sort=random&cachebust=\",\"next_page_offset\":1}}", "json": {"data": [{"id": 33695750, "name": "Des Mosquito", "typeline": ["Insect", "Effect"], "type": "Effect Monster", "humanReadableCardType": "Effect Monster", "frameType": "effect", "desc": "When this card is Normal or Special Summoned: Place 2 counters on it. It gains 500 ATK for each of these counters. If this card would be destroyed by battle, remove 1 of these counters instead.", "race": "Insect", "atk": 500, "def": 500, "level": 3, "attribute": "DARK", "ygoprodeck_url": "https://ygoprodeck.com/card/des-mosquito-2857", "card_sets": [{"set_name": "Battle Pack 2: War of the Giants", "set_code": "BP02-EN076", "set_rarity": "Common", "set_rarity_code": "(C)", "set_price": "0"}, {"set_name": "Battle Pack 2: War of the Giants", "set_code": "BP02-EN076", "set_rarity": "Mosaic Rare", "set_rarity_code": "(MSR)", "set_price": "0"}, {"set_name": "Battle Pack: Epic Dawn", "set_code": "BP01-EN194", "set_rarity": "Common", "set_rarity_code": "(C)", "set_price": "0"}, {"set_name": "Battle Pack: Epic Dawn", "set_code": "BP01-EN194", "set_rarity": "Starfoil Rare", "set_rarity_code": "(SFR)", "set_price": "0"}, {"set_name": "Dark Legends", "set_code": "DLG1-EN103", "set_rarity": "Rare", "set_rarity_code": "(R)", "set_price": "1.22"}, {"set_name": "Starter Deck: Kaiba Reloaded", "set_code": "YSKR-EN023", "set_rarity": "Common", "set_rarity_code": "(C)", "set_price": "1.08"}, {"set_name": "Yu-Gi-Oh! GX Card Almanac promotional cards", "set_code": "YDB1-EN003", "set_rarity": "Super Rare", "set_rarity_code": "(SR)", "set_price": "0.00"}], "card_images": [{"id": 33695750, "image_url": "https://images.ygoprodeck.com/images/cards/33695750.jpg", "image_url_small": "https://images.ygoprodeck.com/images/cards_small/33695750.jpg", "image_url_cropped": "https://images.ygoprodeck.com/images/cards_cropped/33695750.jpg"}], "card_prices": [{"cardmarket_price": "0.07", "tcgplayer_price": "0.05", "ebay_price": "0.99", "amazon_price": "1.17", "coolstuffinc_price": "0.25"}]}], "meta": {"generated": "2025-05-18T03:22:44+00:00", "current_rows": 1, "total_rows": 13717, "rows_remaining": 13716, "total_pages": 13717, "pages_remaining": 13716, "next_page": "https://db.ygoprodeck.com/api/v7/cardinfo.php?num=1&offset=1&sort=random&cachebust=", "next_page_offset": 1}}, "content": "{\"data\":[{\"id\":33695750,\"name\":\"Des Mosquito\",\"typeline\":[\"Insect\",\"Effect\"],\"type\":\"Effect Monster\",\"humanReadableCardType\":\"Effect Monster\",\"frameType\":\"effect\",\"desc\":\"When this card is Normal or Special Summoned: Place 2 counters on it. It gains 500 ATK for each of these counters. If this card would be destroyed by battle, remove 1 of these counters instead.\",\"race\":\"Insect\",\"atk\":500,\"def\":500,\"level\":3,\"attribute\":\"DARK\",\"ygoprodeck_url\":\"https://ygoprodeck.com/card/des-mosquito-2857\",\"card_sets\":[{\"set_name\":\"Battle Pack 2: War of the Giants\",\"set_code\":\"BP02-EN076\",\"set_rarity\":\"Common\",\"set_rarity_code\":\"(C)\",\"set_price\":\"0\"},{\"set_name\":\"Battle Pack 2: War of the Giants\",\"set_code\":\"BP02-EN076\",\"set_rarity\":\"Mosaic Rare\",\"set_rarity_code\":\"(MSR)\",\"set_price\":\"0\"},{\"set_name\":\"Battle Pack: Epic Dawn\",\"set_code\":\"BP01-EN194\",\"set_rarity\":\"Common\",\"set_rarity_code\":\"(C)\",\"set_price\":\"0\"},{\"set_name\":\"Battle Pack: Epic Dawn\",\"set_code\":\"BP01-EN194\",\"set_rarity\":\"Starfoil Rare\",\"set_rarity_code\":\"(SFR)\",\"set_price\":\"0\"},{\"set_name\":\"Dark Legends\",\"set_code\":\"DLG1-EN103\",\"set_rarity\":\"Rare\",\"set_rarity_code\":\"(R)\",\"set_price\":\"1.22\"},{\"set_name\":\"Starter Deck: Kaiba Reloaded\",\"set_code\":\"YSKR-EN023\",\"set_rarity\":\"Common\",\"set_rarity_code\":\"(C)\",\"set_price\":\"1.08\"},{\"set_name\":\"Yu-Gi-Oh! GX Card Almanac promotional cards\",\"set_code\":\"YDB1-EN003\",\"set_rarity\":\"Super Rare\",\"set_rarity_code\":\"(SR)\",\"set_price\":\"0.00\"}],\"card_images\":[{\"id\":33695750,\"image_url\":\"https://images.ygoprodeck.com/images/cards/33695750.jpg\",\"image_url_small\":\"https://images.ygoprodeck.com/images/cards_small/33695750.jpg\",\"image_url_cropped\":\"https://images.ygoprodeck.com/images/cards_cropped/33695750.jpg\"}],\"card_prices\":[{\"cardmarket_price\":\"0.07\",\"tcgplayer_price\":\"0.05\",\"ebay_price\":\"0.99\",\"amazon_price\":\"1.17\",\"coolstuffinc_price\":\"0.25\"}]}],\"meta\":{\"generated\":\"2025-05-18T03:22:44+00:00\",\"current_rows\":1,\"total_rows\":13717,\"rows_remaining\":13716,\"total_pages\":13717,\"pages_remaining\":13716,\"next_page\":\"https://db.ygoprodeck.com/api/v7/cardinfo.php?num=1&offset=1&sort=random&cachebust=\",\"next_page_offset\":1}}"}